2019-12-01 06:47:59,082 INFO: IMTS startup [in D:\Users\OG\Desktop\CS PROJ\currency_transfer_sys\app\__init__.py:45]
2019-12-01 07:04:24,396 INFO: IMTS startup [in D:\Users\OG\Desktop\CS PROJ\currency_transfer_sys\app\__init__.py:47]
2019-12-01 07:05:50,238 INFO: IMTS startup [in D:\Users\OG\Desktop\CS PROJ\currency_transfer_sys\app\__init__.py:47]
2019-12-01 07:07:17,932 INFO: IMTS startup [in D:\Users\OG\Desktop\CS PROJ\currency_transfer_sys\app\__init__.py:47]
2019-12-01 07:10:42,731 INFO: IMTS startup [in D:\Users\OG\Desktop\CS PROJ\currency_transfer_sys\app\__init__.py:47]
2019-12-01 07:17:00,858 INFO: IMTS startup [in D:\Users\OG\Desktop\CS PROJ\currency_transfer_sys\app\__init__.py:47]
2019-12-01 07:17:42,581 INFO: IMTS startup [in D:\Users\OG\Desktop\CS PROJ\currency_transfer_sys\app\__init__.py:47]
2019-12-01 07:18:18,481 INFO: IMTS startup [in D:\Users\OG\Desktop\CS PROJ\currency_transfer_sys\app\__init__.py:47]
2019-12-01 07:20:02,988 INFO: IMTS startup [in D:\Users\OG\Desktop\CS PROJ\currency_transfer_sys\app\__init__.py:47]
2019-12-01 07:28:00,699 INFO: IMTS startup [in D:\Users\OG\Desktop\CS PROJ\currency_transfer_sys\app\__init__.py:47]
2019-12-01 07:32:23,440 ERROR: Exception on /reset_password_request [POST] [in d:\users\og\desktop\cs proj\venv\lib\site-packages\flask\app.py:1890]
Traceback (most recent call last):
  File "d:\users\og\desktop\cs proj\venv\lib\site-packages\flask\app.py", line 2446, in wsgi_app
    response = self.full_dispatch_request()
  File "d:\users\og\desktop\cs proj\venv\lib\site-packages\flask\app.py", line 1951, in full_dispatch_request
    rv = self.handle_user_exception(e)
  File "d:\users\og\desktop\cs proj\venv\lib\site-packages\flask\app.py", line 1820, in handle_user_exception
    reraise(exc_type, exc_value, tb)
  File "d:\users\og\desktop\cs proj\venv\lib\site-packages\flask\_compat.py", line 39, in reraise
    raise value
  File "d:\users\og\desktop\cs proj\venv\lib\site-packages\flask\app.py", line 1949, in full_dispatch_request
    rv = self.dispatch_request()
  File "d:\users\og\desktop\cs proj\venv\lib\site-packages\flask\app.py", line 1935, in dispatch_request
    return self.view_functions[rule.endpoint](**req.view_args)
  File "D:\Users\OG\Desktop\CS PROJ\currency_transfer_sys\app\routes.py", line 73, in reset_password_request
    send_password_reset_email(user)
  File "D:\Users\OG\Desktop\CS PROJ\currency_transfer_sys\app\email.py", line 18, in send_password_reset_email
    sender=app.config['ADMINS'][0],
NameError: name 'app' is not defined
2019-12-01 07:33:09,016 ERROR: Exception on /reset_password_request [POST] [in d:\users\og\desktop\cs proj\venv\lib\site-packages\flask\app.py:1890]
Traceback (most recent call last):
  File "d:\users\og\desktop\cs proj\venv\lib\site-packages\flask\app.py", line 2446, in wsgi_app
    response = self.full_dispatch_request()
  File "d:\users\og\desktop\cs proj\venv\lib\site-packages\flask\app.py", line 1951, in full_dispatch_request
    rv = self.handle_user_exception(e)
  File "d:\users\og\desktop\cs proj\venv\lib\site-packages\flask\app.py", line 1820, in handle_user_exception
    reraise(exc_type, exc_value, tb)
  File "d:\users\og\desktop\cs proj\venv\lib\site-packages\flask\_compat.py", line 39, in reraise
    raise value
  File "d:\users\og\desktop\cs proj\venv\lib\site-packages\flask\app.py", line 1949, in full_dispatch_request
    rv = self.dispatch_request()
  File "d:\users\og\desktop\cs proj\venv\lib\site-packages\flask\app.py", line 1935, in dispatch_request
    return self.view_functions[rule.endpoint](**req.view_args)
  File "D:\Users\OG\Desktop\CS PROJ\currency_transfer_sys\app\routes.py", line 73, in reset_password_request
    send_password_reset_email(user)
  File "D:\Users\OG\Desktop\CS PROJ\currency_transfer_sys\app\email.py", line 18, in send_password_reset_email
    sender=app.config['ADMINS'][0],
NameError: name 'app' is not defined
2019-12-01 07:33:49,290 ERROR: Exception on /reset_password_request [POST] [in d:\users\og\desktop\cs proj\venv\lib\site-packages\flask\app.py:1890]
Traceback (most recent call last):
  File "d:\users\og\desktop\cs proj\venv\lib\site-packages\flask\app.py", line 2446, in wsgi_app
    response = self.full_dispatch_request()
  File "d:\users\og\desktop\cs proj\venv\lib\site-packages\flask\app.py", line 1951, in full_dispatch_request
    rv = self.handle_user_exception(e)
  File "d:\users\og\desktop\cs proj\venv\lib\site-packages\flask\app.py", line 1820, in handle_user_exception
    reraise(exc_type, exc_value, tb)
  File "d:\users\og\desktop\cs proj\venv\lib\site-packages\flask\_compat.py", line 39, in reraise
    raise value
  File "d:\users\og\desktop\cs proj\venv\lib\site-packages\flask\app.py", line 1949, in full_dispatch_request
    rv = self.dispatch_request()
  File "d:\users\og\desktop\cs proj\venv\lib\site-packages\flask\app.py", line 1935, in dispatch_request
    return self.view_functions[rule.endpoint](**req.view_args)
  File "D:\Users\OG\Desktop\CS PROJ\currency_transfer_sys\app\routes.py", line 73, in reset_password_request
    send_password_reset_email(user)
  File "D:\Users\OG\Desktop\CS PROJ\currency_transfer_sys\app\email.py", line 18, in send_password_reset_email
    send_email('[International Money Transfer System] Reset Your Password',
NameError: name 'app' is not defined
2019-12-01 07:34:51,448 ERROR: Exception on /reset_password_request [POST] [in d:\users\og\desktop\cs proj\venv\lib\site-packages\flask\app.py:1890]
Traceback (most recent call last):
  File "d:\users\og\desktop\cs proj\venv\lib\site-packages\flask\app.py", line 2446, in wsgi_app
    response = self.full_dispatch_request()
  File "d:\users\og\desktop\cs proj\venv\lib\site-packages\flask\app.py", line 1951, in full_dispatch_request
    rv = self.handle_user_exception(e)
  File "d:\users\og\desktop\cs proj\venv\lib\site-packages\flask\app.py", line 1820, in handle_user_exception
    reraise(exc_type, exc_value, tb)
  File "d:\users\og\desktop\cs proj\venv\lib\site-packages\flask\_compat.py", line 39, in reraise
    raise value
  File "d:\users\og\desktop\cs proj\venv\lib\site-packages\flask\app.py", line 1949, in full_dispatch_request
    rv = self.dispatch_request()
  File "d:\users\og\desktop\cs proj\venv\lib\site-packages\flask\app.py", line 1935, in dispatch_request
    return self.view_functions[rule.endpoint](**req.view_args)
  File "D:\Users\OG\Desktop\CS PROJ\currency_transfer_sys\app\routes.py", line 73, in reset_password_request
    send_password_reset_email(user)
  File "D:\Users\OG\Desktop\CS PROJ\currency_transfer_sys\app\email.py", line 18, in send_password_reset_email
    sender=app.config['ADMINS'][0],
NameError: name 'app' is not defined
2019-12-01 07:35:25,040 ERROR: Exception on /reset_password_request [POST] [in d:\users\og\desktop\cs proj\venv\lib\site-packages\flask\app.py:1890]
Traceback (most recent call last):
  File "d:\users\og\desktop\cs proj\venv\lib\site-packages\flask\app.py", line 2446, in wsgi_app
    response = self.full_dispatch_request()
  File "d:\users\og\desktop\cs proj\venv\lib\site-packages\flask\app.py", line 1951, in full_dispatch_request
    rv = self.handle_user_exception(e)
  File "d:\users\og\desktop\cs proj\venv\lib\site-packages\flask\app.py", line 1820, in handle_user_exception
    reraise(exc_type, exc_value, tb)
  File "d:\users\og\desktop\cs proj\venv\lib\site-packages\flask\_compat.py", line 39, in reraise
    raise value
  File "d:\users\og\desktop\cs proj\venv\lib\site-packages\flask\app.py", line 1949, in full_dispatch_request
    rv = self.dispatch_request()
  File "d:\users\og\desktop\cs proj\venv\lib\site-packages\flask\app.py", line 1935, in dispatch_request
    return self.view_functions[rule.endpoint](**req.view_args)
  File "D:\Users\OG\Desktop\CS PROJ\currency_transfer_sys\app\routes.py", line 73, in reset_password_request
    send_password_reset_email(user)
  File "D:\Users\OG\Desktop\CS PROJ\currency_transfer_sys\app\email.py", line 18, in send_password_reset_email
    sender=app.config['ADMINS'][0],
NameError: name 'app' is not defined
2019-12-01 07:36:36,384 ERROR: Exception on /reset_password_request [POST] [in d:\users\og\desktop\cs proj\venv\lib\site-packages\flask\app.py:1890]
Traceback (most recent call last):
  File "d:\users\og\desktop\cs proj\venv\lib\site-packages\flask\app.py", line 2446, in wsgi_app
    response = self.full_dispatch_request()
  File "d:\users\og\desktop\cs proj\venv\lib\site-packages\flask\app.py", line 1951, in full_dispatch_request
    rv = self.handle_user_exception(e)
  File "d:\users\og\desktop\cs proj\venv\lib\site-packages\flask\app.py", line 1820, in handle_user_exception
    reraise(exc_type, exc_value, tb)
  File "d:\users\og\desktop\cs proj\venv\lib\site-packages\flask\_compat.py", line 39, in reraise
    raise value
  File "d:\users\og\desktop\cs proj\venv\lib\site-packages\flask\app.py", line 1949, in full_dispatch_request
    rv = self.dispatch_request()
  File "d:\users\og\desktop\cs proj\venv\lib\site-packages\flask\app.py", line 1935, in dispatch_request
    return self.view_functions[rule.endpoint](**req.view_args)
  File "D:\Users\OG\Desktop\CS PROJ\currency_transfer_sys\app\routes.py", line 73, in reset_password_request
    send_password_reset_email(user)
  File "D:\Users\OG\Desktop\CS PROJ\currency_transfer_sys\app\email.py", line 18, in send_password_reset_email
    sender="noreply@IMTS.com",
NameError: name 'app' is not defined
