2019-12-01 07:36:48,467 ERROR: Exception on /reset_password_request [POST] [in d:\users\og\desktop\cs proj\venv\lib\site-packages\flask\app.py:1890]
Traceback (most recent call last):
  File "d:\users\og\desktop\cs proj\venv\lib\site-packages\flask\app.py", line 2446, in wsgi_app
    response = self.full_dispatch_request()
  File "d:\users\og\desktop\cs proj\venv\lib\site-packages\flask\app.py", line 1951, in full_dispatch_request
    rv = self.handle_user_exception(e)
  File "d:\users\og\desktop\cs proj\venv\lib\site-packages\flask\app.py", line 1820, in handle_user_exception
    reraise(exc_type, exc_value, tb)
  File "d:\users\og\desktop\cs proj\venv\lib\site-packages\flask\_compat.py", line 39, in reraise
    raise value
  File "d:\users\og\desktop\cs proj\venv\lib\site-packages\flask\app.py", line 1949, in full_dispatch_request
    rv = self.dispatch_request()
  File "d:\users\og\desktop\cs proj\venv\lib\site-packages\flask\app.py", line 1935, in dispatch_request
    return self.view_functions[rule.endpoint](**req.view_args)
  File "D:\Users\OG\Desktop\CS PROJ\currency_transfer_sys\app\routes.py", line 73, in reset_password_request
    send_password_reset_email(user)
  File "D:\Users\OG\Desktop\CS PROJ\currency_transfer_sys\app\email.py", line 18, in send_password_reset_email
    sender="noreply@IMTS.com",
NameError: name 'app' is not defined
2019-12-01 07:38:37,797 ERROR: Exception on /reset_password_request [POST] [in d:\users\og\desktop\cs proj\venv\lib\site-packages\flask\app.py:1890]
Traceback (most recent call last):
  File "d:\users\og\desktop\cs proj\venv\lib\site-packages\flask\app.py", line 2446, in wsgi_app
    response = self.full_dispatch_request()
  File "d:\users\og\desktop\cs proj\venv\lib\site-packages\flask\app.py", line 1951, in full_dispatch_request
    rv = self.handle_user_exception(e)
  File "d:\users\og\desktop\cs proj\venv\lib\site-packages\flask\app.py", line 1820, in handle_user_exception
    reraise(exc_type, exc_value, tb)
  File "d:\users\og\desktop\cs proj\venv\lib\site-packages\flask\_compat.py", line 39, in reraise
    raise value
  File "d:\users\og\desktop\cs proj\venv\lib\site-packages\flask\app.py", line 1949, in full_dispatch_request
    rv = self.dispatch_request()
  File "d:\users\og\desktop\cs proj\venv\lib\site-packages\flask\app.py", line 1935, in dispatch_request
    return self.view_functions[rule.endpoint](**req.view_args)
  File "D:\Users\OG\Desktop\CS PROJ\currency_transfer_sys\app\routes.py", line 73, in reset_password_request
    send_password_reset_email(user)
  File "D:\Users\OG\Desktop\CS PROJ\currency_transfer_sys\app\email.py", line 18, in send_password_reset_email
    token = user.get_reset_password_token()
NameError: name 'app' is not defined
2019-12-01 07:40:13,017 ERROR: Exception on /reset_password_request [POST] [in d:\users\og\desktop\cs proj\venv\lib\site-packages\flask\app.py:1890]
Traceback (most recent call last):
  File "d:\users\og\desktop\cs proj\venv\lib\site-packages\flask\app.py", line 2446, in wsgi_app
    response = self.full_dispatch_request()
  File "d:\users\og\desktop\cs proj\venv\lib\site-packages\flask\app.py", line 1951, in full_dispatch_request
    rv = self.handle_user_exception(e)
  File "d:\users\og\desktop\cs proj\venv\lib\site-packages\flask\app.py", line 1820, in handle_user_exception
    reraise(exc_type, exc_value, tb)
  File "d:\users\og\desktop\cs proj\venv\lib\site-packages\flask\_compat.py", line 39, in reraise
    raise value
  File "d:\users\og\desktop\cs proj\venv\lib\site-packages\flask\app.py", line 1949, in full_dispatch_request
    rv = self.dispatch_request()
  File "d:\users\og\desktop\cs proj\venv\lib\site-packages\flask\app.py", line 1935, in dispatch_request
    return self.view_functions[rule.endpoint](**req.view_args)
  File "D:\Users\OG\Desktop\CS PROJ\currency_transfer_sys\app\routes.py", line 73, in reset_password_request
    send_password_reset_email(user)
  File "D:\Users\OG\Desktop\CS PROJ\currency_transfer_sys\app\email.py", line 18, in send_password_reset_email
    token = user.get_reset_password_token()
NameError: name 'app' is not defined
2019-12-01 07:41:27,004 ERROR: Exception on /reset_password_request [POST] [in d:\users\og\desktop\cs proj\venv\lib\site-packages\flask\app.py:1890]
Traceback (most recent call last):
  File "d:\users\og\desktop\cs proj\venv\lib\site-packages\flask\app.py", line 2446, in wsgi_app
    response = self.full_dispatch_request()
  File "d:\users\og\desktop\cs proj\venv\lib\site-packages\flask\app.py", line 1951, in full_dispatch_request
    rv = self.handle_user_exception(e)
  File "d:\users\og\desktop\cs proj\venv\lib\site-packages\flask\app.py", line 1820, in handle_user_exception
    reraise(exc_type, exc_value, tb)
  File "d:\users\og\desktop\cs proj\venv\lib\site-packages\flask\_compat.py", line 39, in reraise
    raise value
  File "d:\users\og\desktop\cs proj\venv\lib\site-packages\flask\app.py", line 1949, in full_dispatch_request
    rv = self.dispatch_request()
  File "d:\users\og\desktop\cs proj\venv\lib\site-packages\flask\app.py", line 1935, in dispatch_request
    return self.view_functions[rule.endpoint](**req.view_args)
  File "D:\Users\OG\Desktop\CS PROJ\currency_transfer_sys\app\routes.py", line 73, in reset_password_request
    send_password_reset_email(user)
  File "D:\Users\OG\Desktop\CS PROJ\currency_transfer_sys\app\email.py", line 18, in send_password_reset_email
    token = user.get_reset_password_token()
NameError: name 'app' is not defined
2019-12-01 07:43:51,422 ERROR: Exception on /reset_password_request [POST] [in d:\users\og\desktop\cs proj\venv\lib\site-packages\flask\app.py:1890]
Traceback (most recent call last):
  File "d:\users\og\desktop\cs proj\venv\lib\site-packages\flask\app.py", line 2446, in wsgi_app
    response = self.full_dispatch_request()
  File "d:\users\og\desktop\cs proj\venv\lib\site-packages\flask\app.py", line 1951, in full_dispatch_request
    rv = self.handle_user_exception(e)
  File "d:\users\og\desktop\cs proj\venv\lib\site-packages\flask\app.py", line 1820, in handle_user_exception
    reraise(exc_type, exc_value, tb)
  File "d:\users\og\desktop\cs proj\venv\lib\site-packages\flask\_compat.py", line 39, in reraise
    raise value
  File "d:\users\og\desktop\cs proj\venv\lib\site-packages\flask\app.py", line 1949, in full_dispatch_request
    rv = self.dispatch_request()
  File "d:\users\og\desktop\cs proj\venv\lib\site-packages\flask\app.py", line 1935, in dispatch_request
    return self.view_functions[rule.endpoint](**req.view_args)
  File "D:\Users\OG\Desktop\CS PROJ\currency_transfer_sys\app\routes.py", line 73, in reset_password_request
    send_password_reset_email(user)
  File "D:\Users\OG\Desktop\CS PROJ\currency_transfer_sys\app\email.py", line 18, in send_password_reset_email
    token = user.get_reset_password_token()
NameError: name 'app' is not defined
2019-12-01 07:45:36,677 ERROR: Exception on /reset_password_request [POST] [in d:\users\og\desktop\cs proj\venv\lib\site-packages\flask\app.py:1890]
Traceback (most recent call last):
  File "d:\users\og\desktop\cs proj\venv\lib\site-packages\flask\app.py", line 2446, in wsgi_app
    response = self.full_dispatch_request()
  File "d:\users\og\desktop\cs proj\venv\lib\site-packages\flask\app.py", line 1951, in full_dispatch_request
    rv = self.handle_user_exception(e)
  File "d:\users\og\desktop\cs proj\venv\lib\site-packages\flask\app.py", line 1820, in handle_user_exception
    reraise(exc_type, exc_value, tb)
  File "d:\users\og\desktop\cs proj\venv\lib\site-packages\flask\_compat.py", line 39, in reraise
    raise value
  File "d:\users\og\desktop\cs proj\venv\lib\site-packages\flask\app.py", line 1949, in full_dispatch_request
    rv = self.dispatch_request()
  File "d:\users\og\desktop\cs proj\venv\lib\site-packages\flask\app.py", line 1935, in dispatch_request
    return self.view_functions[rule.endpoint](**req.view_args)
  File "D:\Users\OG\Desktop\CS PROJ\currency_transfer_sys\app\routes.py", line 73, in reset_password_request
    send_password_reset_email(user)
  File "D:\Users\OG\Desktop\CS PROJ\currency_transfer_sys\app\email.py", line 18, in send_password_reset_email
    send_email('[IMTS] Reset Your Password',
NameError: name 'app' is not defined
2019-12-01 07:47:47,376 INFO: IMTS startup [in D:\Users\OG\Desktop\CS PROJ\currency_transfer_sys\app\__init__.py:47]
2019-12-01 07:47:53,948 ERROR: Exception on /reset_password_request [POST] [in d:\users\og\desktop\cs proj\venv\lib\site-packages\flask\app.py:1890]
Traceback (most recent call last):
  File "d:\users\og\desktop\cs proj\venv\lib\site-packages\flask\app.py", line 2446, in wsgi_app
    response = self.full_dispatch_request()
  File "d:\users\og\desktop\cs proj\venv\lib\site-packages\flask\app.py", line 1951, in full_dispatch_request
    rv = self.handle_user_exception(e)
  File "d:\users\og\desktop\cs proj\venv\lib\site-packages\flask\app.py", line 1820, in handle_user_exception
    reraise(exc_type, exc_value, tb)
  File "d:\users\og\desktop\cs proj\venv\lib\site-packages\flask\_compat.py", line 39, in reraise
    raise value
  File "d:\users\og\desktop\cs proj\venv\lib\site-packages\flask\app.py", line 1949, in full_dispatch_request
    rv = self.dispatch_request()
  File "d:\users\og\desktop\cs proj\venv\lib\site-packages\flask\app.py", line 1935, in dispatch_request
    return self.view_functions[rule.endpoint](**req.view_args)
  File "D:\Users\OG\Desktop\CS PROJ\currency_transfer_sys\app\routes.py", line 73, in reset_password_request
    send_password_reset_email(user)
  File "D:\Users\OG\Desktop\CS PROJ\currency_transfer_sys\app\email.py", line 25, in send_password_reset_email
    send_email(title=_title,
TypeError: send_email() got an unexpected keyword argument 'title'
